{
    "KPlugin": {
        "Description": "Window decoration using the Sirocco visual style for the Plasma Desktop",
        "Description[ar]": "زخرفة نوافذ تستخدم نمط «نسيم» المرئيّ لسطح مكتب «بلازما»",
        "Description[ast]": "La decoración de ventanes pal escritoriu de Plasma qu'usa l'estilu visual Sirocco",
        "Description[az]": "Plazma Masaüstü üçün Sirocco vizual üslubundan istifadə edən pəncərə dekorasiyası",
        "Description[ca@valencia]": "Decoració de les finestres que usa l'estil visual Brisa per a l'escriptori Plasma",
        "Description[ca]": "Decoració de les finestres que usa l'estil visual Brisa per a l'escriptori Plasma",
        "Description[cs]": "Dekorace oken pro pracovní plochu Plasma využívající styl Sirocco",
        "Description[da]": "Vinduesdekoration som bruger den visuelle stil Sirocco til Plasma-skrivebordet",
        "Description[de]": "Fensterdekoration im Sirocco-Design für die Plasma-Arbeitsfläche",
        "Description[el]": "Διακοσμήσεις παραθύρων με το στιλ του Sirocco για την επιφάνεια εργασίας Plasma",
        "Description[en_GB]": "Window decoration using the Sirocco visual style for the Plasma Desktop",
        "Description[es]": "Decoración de ventanas que usa el estilo visual Brisa para el escritorio Plasma",
        "Description[et]": "Plasma töölaua akende dekoratsioon Sirocco'i visuaalse stiiliga",
        "Description[eu]": "Leiho apainketa Plasma mahaigainerako Sirocco ikus-estiloa erabiliz",
        "Description[fi]": "Sirocco-tyyliä käyttävä ikkunan kehys Plasma-työpöydälle",
        "Description[fr]": "Décorations de fenêtres utilisant le style visuel Sirocco pour le bureau Plasma",
        "Description[gl]": "Decoración de xanelas que usa o estilo visual Sirocco para o escritorio Plasma.",
        "Description[hi]": "प्लाज़्मा डेस्कटॉप के लिए ब्रीज़ दृश्य शैली का उपयोग करके विंडो सजावट",
        "Description[hu]": "A Sirocco vizuális stílusát használó ablakdekoráció",
        "Description[ia]": "Decoration de fenestra usante le stilo visual Sirocco (Brisa) per le scriptorio de Plasma",
        "Description[id]": "Dekorasi window menggunakan gaya visual Sirocco untuk Desktop Plasma",
        "Description[it]": "Decorazione per finestre che usa lo stile visuale di Brezza per il desktop Plasma",
        "Description[ja]": "Plasma デスクトップのための Sirocco スタイルを使用したウィンドウ装飾",
        "Description[ko]": "Plasma 데스크톱의 Sirocco 시각 스타일을 사용하는 창 장식",
        "Description[lt]": "Langų dekoracijos, naudojant Sirocco vaizdinį stilių, skirtą Plasma darbalaukiui",
        "Description[nb]": "Vinduspynt som bruker Sirocco-stilen for Plasma-skrivebordet",
        "Description[nl]": "Vensterdecoratie met gebruik van de visuele stijl Sirocco voor het Plasma bureaublad",
        "Description[nn]": "Vindaugspynt som brukar Sirocco-stilen for Plasma-skrivebordet",
        "Description[pa]": "ਪਲਾਜ਼ਮਾ ਡੈਸਕਟਾਪ ਲਈ ਬਰੀਜ਼ ਦਿੱਖ ਸਟਾਈਲ ਦੀ ਵਰਤੋਂ ਕਰਕੇ ਵਿੰਡੋ ਸਜਾਵਟ",
        "Description[pl]": "Wystrój okien przy użyciu stylu wizualnego Bryzy dla Pulpitu Plazmy",
        "Description[pt]": "Decoração de janelas que usa o estilo visual Brisa para a Área de Trabalho Plasma",
        "Description[pt_BR]": "Decoração de janelas que usa o estilo visual Sirocco para o Plasma Desktop",
        "Description[ro]": "Decorații de fereastră folosind stilul vizual Briză pentru biroul Plasma",
        "Description[ru]": "Оформление окон Sirocco",
        "Description[sk]": "Dekorácia okien pomocou vizuálneho štýlu Vánok pre plochu Plasma",
        "Description[sl]": "Okraski oken, ki uporabljajo vidni slog teme Sapica za namizje Plasma",
        "Description[sr@ijekavian]": "Декорација прозора са Поветарцем као визуелним стилом за плазма површ.",
        "Description[sr@ijekavianlatin]": "Dekoracija prozora sa Povetarcem kao vizuelnim stilom za plasma površ.",
        "Description[sr@latin]": "Dekoracija prozora sa Povetarcem kao vizuelnim stilom za plasma površ.",
        "Description[sr]": "Декорација прозора са Поветарцем као визуелним стилом за плазма површ.",
        "Description[sv]": "Fönsterdekoration med den visuella stilen Sirocco för Plasma skrivbord",
        "Description[tg]": "Ороиши равзана бо истифодаи услуби намоёнии Насим барои мизи кории Plasma",
        "Description[tr]": "Sirocco görsel biçemini Plasma Masaüstü için kullanan pencere dekorasyonu",
        "Description[uk]": "Обрамлення вікон з використанням візуального стилю Sirocco для стільничного середовища Плазми",
        "Description[x-test]": "xxWindow decoration using the Sirocco visual style for the Plasma Desktopxx",
        "Description[zh_CN]": "Sirocco 微风视觉风格的 Plasma 桌面窗口装饰",
        "Description[zh_TW]": "使用 Plasma 桌面 Sirocco 視覺樣式的視窗裝飾",
        "EnabledByDefault": true,
        "Id": "org.kde.sirocco",
        "Name": "Sirocco",
        "Name[ar]": "نسيم",
        "Name[ast]": "Sirocco",
        "Name[az]": "Sirocco",
        "Name[ca@valencia]": "Brisa",
        "Name[ca]": "Brisa",
        "Name[cs]": "Sirocco",
        "Name[da]": "Sirocco",
        "Name[de]": "Sirocco",
        "Name[el]": "Sirocco",
        "Name[en_GB]": "Sirocco",
        "Name[es]": "Brisa",
        "Name[et]": "Sirocco",
        "Name[eu]": "Sirocco",
        "Name[fi]": "Sirocco",
        "Name[fr]": "Sirocco",
        "Name[gl]": "Sirocco",
        "Name[hi]": "ब्रीज़",
        "Name[hu]": "Sirocco",
        "Name[ia]": "Brisa (Sirocco)",
        "Name[id]": "Sirocco",
        "Name[it]": "Brezza",
        "Name[ja]": "Sirocco",
        "Name[ko]": "Sirocco",
        "Name[lt]": "Sirocco",
        "Name[nb]": "Sirocco",
        "Name[nl]": "Sirocco",
        "Name[nn]": "Sirocco",
        "Name[pa]": "ਬਰੀਜ਼",
        "Name[pl]": "Bryza",
        "Name[pt]": "Brisa",
        "Name[pt_BR]": "Sirocco",
        "Name[ro]": "Briză",
        "Name[ru]": "Sirocco",
        "Name[sk]": "Vánok",
        "Name[sl]": "Sapica",
        "Name[sr@ijekavian]": "Поветарац",
        "Name[sr@ijekavianlatin]": "Povetarac",
        "Name[sr@latin]": "Povetarac",
        "Name[sr]": "Поветарац",
        "Name[sv]": "Sirocco",
        "Name[tg]": "Насим",
        "Name[tr]": "Esinti",
        "Name[uk]": "Sirocco",
        "Name[x-test]": "xxSiroccoxx",
        "Name[zh_CN]": "Sirocco 微风",
        "Name[zh_TW]": "Sirocco",
        "ServiceTypes": [
            "org.kde.kdecoration2"
        ]
    },
    "org.kde.kdecoration2": {
        "blur": false,
        "kcmodule": true,
        "recommendedBorderSize": "None"
    }
}
